place,station_id,latitude,longitude,year,depth_m,CH4_insitu_nM,methane_additions_target,methane_additions_measured_nM,tracer_stock,tritiumCH4_in_sample_dpm_mL-1,replicate,incubation_time_hours,tritiumH2O_in_sample_dpm_mL-1,k_yr-1,k_SE,methane_oxidation_nmolL-1d-1,methane_oxidation_SE
GD,1,8.685278,-83.385278,2019,95,17,tracer_only,20,stock19c,1032638,a,0.85,2662,7.21,0.92,0.42,0.05
GD,1,8.685278,-83.385278,2019,95,17,tracer_only,21,stock19c,934412,b,0.85,3485,7.21,0.92,0.42,0.05
GD,1,8.685278,-83.385278,2019,95,17,tracer_only,,stock19c,,a,6.03,6899,7.21,0.92,0.42,0.05
GD,1,8.685278,-83.385278,2019,95,17,tracer_only,23,stock19c,,b,6.03,6831,7.21,0.92,0.42,0.05
GD,1,8.685278,-83.385278,2019,95,17,tracer_only,,stock19c,,a,11.8,6893,7.21,0.92,0.42,0.05
GD,1,8.685278,-83.385278,2019,95,17,tracer_only,21,stock19c,,b,11.8,11833,7.21,0.92,0.42,0.05
GD,1,8.685278,-83.385278,2019,95,17,tracer_only,,stock19c,,a,23.28,23580,7.21,0.92,0.42,0.05
GD,1,8.685278,-83.385278,2019,95,17,tracer_only,22,stock19c,,b,23.28,18400,7.21,0.92,0.42,0.05
GD,1,8.685278,-83.385278,2019,95,17,50nM,85,stock19c,1009304,a,0.82,3138,5.64,0.41,1.23,0.09
GD,1,8.685278,-83.385278,2019,95,17,50nM ,80,stock19c,981927,b,0.82,3716,5.64,0.41,1.23,0.09
GD,1,8.685278,-83.385278,2019,95,17,50nM ,,stock19c,,a,6,9344,5.64,0.41,1.23,0.09
GD,1,8.685278,-83.385278,2019,95,17,50nM ,84,stock19c,,b,6,7251,5.64,0.41,1.23,0.09
GD,1,8.685278,-83.385278,2019,95,17,50nM ,,stock19c,,a,11.77,10545,5.64,0.41,1.23,0.09
GD,1,8.685278,-83.385278,2019,95,17,50nM ,76,stock19c,,b,11.77,11638,5.64,0.41,1.23,0.09
GD,1,8.685278,-83.385278,2019,95,17,50nM ,,stock19c,,a,23.25,18450,5.64,0.41,1.23,0.09
GD,1,8.685278,-83.385278,2019,95,17,50nM ,72,stock19c,,b,23.25,17224,5.64,0.41,1.23,0.09
GD,1,8.685278,-83.385278,2019,95,17,100nM ,136,stock19c,987706,a,0.78,3078,5.05,0.75,1.66,0.25
GD,1,8.685278,-83.385278,2019,95,17,100nM ,113,stock19c,890734,b,0.78,4997,5.05,0.75,1.66,0.25
GD,1,8.685278,-83.385278,2019,95,17,100nM ,,stock19c,,a,5.97,5759,5.05,0.75,1.66,0.25
GD,1,8.685278,-83.385278,2019,95,17,100nM ,101,stock19c,,b,5.97,5884,5.05,0.75,1.66,0.25
GD,1,8.685278,-83.385278,2019,95,17,100nM ,,stock19c,,a,11.73,9389,5.05,0.75,1.66,0.25
GD,1,8.685278,-83.385278,2019,95,17,100nM ,128,stock19c,,b,11.73,6882,5.05,0.75,1.66,0.25
GD,1,8.685278,-83.385278,2019,95,17,100nM ,,stock19c,,a,23.22,18815,5.05,0.75,1.66,0.25
GD,1,8.685278,-83.385278,2019,95,17,100nM ,122,stock19c,,b,23.22,13812,5.05,0.75,1.66,0.25
GD,1,8.685278,-83.385278,2019,95,17,250nM,294,stock19c,935207,a,0.77,2979,4.81,0.45,3.83,0.35
GD,1,8.685278,-83.385278,2019,95,17,250nM,289,stock19c,936330,b,0.77,3406,4.81,0.45,3.83,0.35
GD,1,8.685278,-83.385278,2019,95,17,250nM,,stock19c,,a,5.93,6414,4.81,0.45,3.83,0.35
GD,1,8.685278,-83.385278,2019,95,17,250nM,319,stock19c,,b,5.93,4704,4.81,0.45,3.83,0.35
GD,1,8.685278,-83.385278,2019,95,17,250nM,,stock19c,,a,11.72,6888,4.81,0.45,3.83,0.35
GD,1,8.685278,-83.385278,2019,95,17,250nM,297,stock19c,,b,11.72,7108,4.81,0.45,3.83,0.35
GD,1,8.685278,-83.385278,2019,95,17,250nM,,stock19c,,a,23.18,14500,4.81,0.45,3.83,0.35
GD,1,8.685278,-83.385278,2019,95,17,250nM,252,stock19c,,b,23.18,15776,4.81,0.45,3.83,0.35
GD,1,8.685278,-83.385278,2019,95,17,500nM,537,stock19c,990809,a,0.72,3087,6.81,1.5,9.46,2.08
GD,1,8.685278,-83.385278,2019,95,17,500nM,462,stock19c,978180,b,0.72,3184,6.81,1.5,9.46,2.08
GD,1,8.685278,-83.385278,2019,95,17,500nM,,stock19c,,a,5.9,4308,6.81,1.5,9.46,2.08
GD,1,8.685278,-83.385278,2019,95,17,500nM,521,stock19c,,b,5.9,4091,6.81,1.5,9.46,2.08
GD,1,8.685278,-83.385278,2019,95,17,500nM,,stock19c,,a,11.67,6971,6.81,1.5,9.46,2.08
GD,1,8.685278,-83.385278,2019,95,17,500nM,,stock19c,,b,11.67,12392,6.81,1.5,9.46,2.08
GD,1,8.685278,-83.385278,2019,95,17,500nM,,stock19c,,a,23.15,13345,6.81,1.5,9.46,2.08
GD,1,8.685278,-83.385278,2019,95,17,500nM,,stock19c,,b,23.15,24924,6.81,1.5,9.46,2.08
GD,1,8.685278,-83.385278,2019,95,17,1500nM,1534,stock19c,975632,a,0.68,2271,2.46,0.27,11.07,1.21
GD,1,8.685278,-83.385278,2019,95,17,1500nM,1622,stock19c,920371,b,0.68,2194,2.46,0.27,11.07,1.21
GD,1,8.685278,-83.385278,2019,95,17,1500nM,,stock19c,,a,5.87,4270,2.46,0.27,11.07,1.21
GD,1,8.685278,-83.385278,2019,95,17,1500nM,1638,stock19c,,b,5.87,4861,2.46,0.27,11.07,1.21
GD,1,8.685278,-83.385278,2019,95,17,1500nM,,stock19c,,a,11.63,4247,2.46,0.27,11.07,1.21
GD,1,8.685278,-83.385278,2019,95,17,1500nM,1678,stock19c,,b,11.63,5723,2.46,0.27,11.07,1.21
GD,1,8.685278,-83.385278,2019,95,17,1500nM,,stock19c,,a,23.12,8959,2.46,0.27,11.07,1.21
GD,1,8.685278,-83.385278,2019,95,17,1500nM,1713,stock19c,,b,23.12,8360,2.46,0.27,11.07,1.21
GD,1,8.685278,-83.385278,2019,130,216,tracer_only,14,stock19d,770708,a,1.08,1833,10.45,1.75,0.45,0.08
GD,1,8.685278,-83.385278,2019,130,216,tracer_only,15,stock19d,790507,b,1.08,1677,10.45,1.75,0.45,0.08
GD,1,8.685278,-83.385278,2019,130,216,tracer_only,,stock19d,,a,6.32,4874,10.45,1.75,0.45,0.08
GD,1,8.685278,-83.385278,2019,130,216,tracer_only,17,stock19d,,b,6.32,4929,10.45,1.75,0.45,0.08
GD,1,8.685278,-83.385278,2019,130,216,tracer_only,,stock19d,,a,12.1,6375,10.45,1.75,0.45,0.08
GD,1,8.685278,-83.385278,2019,130,216,tracer_only,16,stock19d,,b,12.1,6947,10.45,1.75,0.45,0.08
GD,1,8.685278,-83.385278,2019,130,216,tracer_only,,stock19d,,a,23.55,17235,10.45,1.75,0.45,0.08
GD,1,8.685278,-83.385278,2019,130,216,tracer_only,17,stock19d,,b,23.55,26452,10.45,1.75,0.45,0.08
GD,1,8.685278,-83.385278,2019,130,216,50nM,66,stock19d,775596,a,1.03,2050,9.51,2.86,1.86,0.56
GD,1,8.685278,-83.385278,2019,130,216,50nM ,65,stock19d,732244,b,1.03,2012,9.51,2.86,1.86,0.56
GD,1,8.685278,-83.385278,2019,130,216,50nM ,,stock19d,,a,6.27,3904,9.51,2.86,1.86,0.56
GD,1,8.685278,-83.385278,2019,130,216,50nM ,75,stock19d,,b,6.27,2867,9.51,2.86,1.86,0.56
GD,1,8.685278,-83.385278,2019,130,216,50nM ,,stock19d,,a,12.07,5531,9.51,2.86,1.86,0.56
GD,1,8.685278,-83.385278,2019,130,216,50nM ,62,stock19d,,b,12.05,4213,9.51,2.86,1.86,0.56
GD,1,8.685278,-83.385278,2019,130,216,50nM ,,stock19d,,a,23.52,11250,9.51,2.86,1.86,0.56
GD,1,8.685278,-83.385278,2019,130,216,50nM ,89,stock19d,,b,23.52,28689,9.51,2.86,1.86,0.56
GD,1,8.685278,-83.385278,2019,130,216,100nM ,141,stock19d,788334,a,1,2008,3.62,0.7,1.32,0.25
GD,1,8.685278,-83.385278,2019,130,216,100nM ,119,stock19d,879139,b,1,2335,3.62,0.7,1.32,0.25
GD,1,8.685278,-83.385278,2019,130,216,100nM ,,stock19d,,a,6.23,4670,3.62,0.7,1.32,0.25
GD,1,8.685278,-83.385278,2019,130,216,100nM ,136,stock19d,,b,6.23,2513,3.62,0.7,1.32,0.25
GD,1,8.685278,-83.385278,2019,130,216,100nM ,,stock19d,,a,12.03,3868,3.62,0.7,1.32,0.25
GD,1,8.685278,-83.385278,2019,130,216,100nM ,133,stock19d,,b,12.03,7246,3.62,0.7,1.32,0.25
GD,1,8.685278,-83.385278,2019,130,216,100nM ,,stock19d,,a,23.48,7675,3.62,0.7,1.32,0.25
GD,1,8.685278,-83.385278,2019,130,216,100nM ,135,stock19d,,b,23.48,10470,3.62,0.7,1.32,0.25
GD,1,8.685278,-83.385278,2019,130,216,250nM,281,stock19d,720788,a,0.98,2384,5.86,1.02,4.61,0.8
GD,1,8.685278,-83.385278,2019,130,216,250nM,279,stock19d,774994,b,0.98,1857,5.86,1.02,4.61,0.8
GD,1,8.685278,-83.385278,2019,130,216,250nM,,stock19d,,a,6.22,4739,5.86,1.02,4.61,0.8
GD,1,8.685278,-83.385278,2019,130,216,250nM,313,stock19d,,b,6.22,4776,5.86,1.02,4.61,0.8
GD,1,8.685278,-83.385278,2019,130,216,250nM,,stock19d,,a,12.02,4280,5.86,1.02,4.61,0.8
GD,1,8.685278,-83.385278,2019,130,216,250nM,291,stock19d,,b,12.02,6490,5.86,1.02,4.61,0.8
GD,1,8.685278,-83.385278,2019,130,216,250nM,,stock19d,,a,23.47,10931,5.86,1.02,4.61,0.8
GD,1,8.685278,-83.385278,2019,130,216,250nM,271,stock19d,,b,23.47,16350,5.86,1.02,4.61,0.8
GD,1,8.685278,-83.385278,2019,130,216,500nM,515,stock19d,726431,a,0.93,2127,4.46,0.92,4.49,0.93
GD,1,8.685278,-83.385278,2019,130,216,500nM,558,stock19d,653280,b,0.93,2151,4.46,0.92,4.49,0.93
GD,1,8.685278,-83.385278,2019,130,216,500nM,,stock19d,,a,6.18,3155,4.46,0.92,4.49,0.93
GD,1,8.685278,-83.385278,2019,130,216,500nM,,stock19d,,b,6.18,2748,4.46,0.92,4.49,0.93
GD,1,8.685278,-83.385278,2019,130,216,500nM,,stock19d,,a,11.97,5573,4.46,0.92,4.49,0.93
GD,1,8.685278,-83.385278,2019,130,216,500nM,,stock19d,,b,11.97,2664,4.46,0.92,4.49,0.93
GD,1,8.685278,-83.385278,2019,130,216,500nM,,stock19d,,a,23.43,12824,4.46,0.92,4.49,0.93
GD,1,8.685278,-83.385278,2019,130,216,500nM,658,stock19d,,b,23.43,8289,4.46,0.92,4.49,0.93
GD,1,8.685278,-83.385278,2019,130,216,1500nM,1714,stock19d,729348,a,0.93,2094,4.97,1.57,24.09,7.62
GD,1,8.685278,-83.385278,2019,130,216,1500nM,1746,stock19d,656052,b,0.93,2129,4.97,1.57,24.09,7.62
GD,1,8.685278,-83.385278,2019,130,216,1500nM,,stock19d,,a,6.17,2689,4.97,1.57,24.09,7.62
GD,1,8.685278,-83.385278,2019,130,216,1500nM,1811,stock19d,,b,6.17,401,4.97,1.57,24.09,7.62
GD,1,8.685278,-83.385278,2019,130,216,1500nM,,stock19d,,a,11.95,2875,4.97,1.57,24.09,7.62
GD,1,8.685278,-83.385278,2019,130,216,1500nM,1776,stock19d,,b,11.95,5635,4.97,1.57,24.09,7.62
GD,1,8.685278,-83.385278,2019,130,216,1500nM,,stock19d,,a,23.42,15623,4.97,1.57,24.09,7.62
GD,1,8.685278,-83.385278,2019,130,216,1500nM,1794,stock19d,,b,23.42,6340,4.97,1.57,24.09,7.62
GD,1,8.685278,-83.385278,2019,180,855,tracer_only,18,stock19c,828747,a,0.63,5543,11.07,0.53,0.56,0.03
GD,1,8.685278,-83.385278,2019,180,855,tracer_only,19,stock19c,968305,b,0.63,3175,11.07,0.53,0.56,0.03
GD,1,8.685278,-83.385278,2019,180,855,tracer_only,,stock19c,,a,5.77,8921,11.07,0.53,0.56,0.03
GD,1,8.685278,-83.385278,2019,180,855,tracer_only,18,stock19c,,b,5.77,10207,11.07,0.53,0.56,0.03
GD,1,8.685278,-83.385278,2019,180,855,tracer_only,,stock19c,,a,11.53,16743,11.07,0.53,0.56,0.03
GD,1,8.685278,-83.385278,2019,180,855,tracer_only,19,stock19c,,b,11.53,16377,11.07,0.53,0.56,0.03
GD,1,8.685278,-83.385278,2019,180,855,tracer_only,,stock19c,,a,23.02,30669,11.07,0.53,0.56,0.03
GD,1,8.685278,-83.385278,2019,180,855,tracer_only,19,stock19c,,b,23.02,27382,11.07,0.53,0.56,0.03
GD,1,8.685278,-83.385278,2019,180,855,50nM,52,stock19c,1044090,a,0.6,2868,3.22,1.21,0.59,0.22
GD,1,8.685278,-83.385278,2019,180,855,50nM ,59,stock19c,998938,b,0.6,3060,3.22,1.21,0.59,0.22
GD,1,8.685278,-83.385278,2019,180,855,50nM ,,stock19c,,a,5.73,3248,3.22,1.21,0.59,0.22
GD,1,8.685278,-83.385278,2019,180,855,50nM ,68,stock19c,,b,5.73,8779,3.22,1.21,0.59,0.22
GD,1,8.685278,-83.385278,2019,180,855,50nM ,,stock19c,,a,11.5,7032,3.22,1.21,0.59,0.22
GD,1,8.685278,-83.385278,2019,180,855,50nM ,85,stock19c,,b,11.5,11198,3.22,1.21,0.59,0.22
GD,1,8.685278,-83.385278,2019,180,855,50nM ,,stock19c,,a,22.98,7546,3.22,1.21,0.59,0.22
GD,1,8.685278,-83.385278,2019,180,855,50nM ,72,stock19c,,b,22.98,13289,3.22,1.21,0.59,0.22
GD,1,8.685278,-83.385278,2019,180,855,100nM ,124,stock19c,924825,a,0.57,3305,3.97,0.22,1.22,0.07
GD,1,8.685278,-83.385278,2019,180,855,100nM ,100,stock19c,991486,b,0.57,3430,3.97,0.22,1.22,0.07
GD,1,8.685278,-83.385278,2019,180,855,100nM ,,stock19c,,a,5.7,5772,3.97,0.22,1.22,0.07
GD,1,8.685278,-83.385278,2019,180,855,100nM ,108,stock19c,,b,5.7,4436,3.97,0.22,1.22,0.07
GD,1,8.685278,-83.385278,2019,180,855,100nM ,,stock19c,,a,11.47,7567,3.97,0.22,1.22,0.07
GD,1,8.685278,-83.385278,2019,180,855,100nM ,110,stock19c,,b,11.47,6910,3.97,0.22,1.22,0.07
GD,1,8.685278,-83.385278,2019,180,855,100nM ,,stock19c,,a,22.95,12537,3.97,0.22,1.22,0.07
GD,1,8.685278,-83.385278,2019,180,855,100nM ,118,stock19c,,b,22.95,11883,3.97,0.22,1.22,0.07
GD,1,8.685278,-83.385278,2019,180,855,250nM,,stock19c,1009553,a,0.53,0,7.93,1.55,4.77,0.93
GD,1,8.685278,-83.385278,2019,180,855,250nM,268,stock19c,871646,b,0.53,3614,7.93,1.55,4.77,0.93
GD,1,8.685278,-83.385278,2019,180,855,250nM,,stock19c,,a,5.68,8603,7.93,1.55,4.77,0.93
GD,1,8.685278,-83.385278,2019,180,855,250nM,259,stock19c,,b,5.68,6833,7.93,1.55,4.77,0.93
GD,1,8.685278,-83.385278,2019,180,855,250nM,,stock19c,,a,11.47,20120,7.93,1.55,4.77,0.93
GD,1,8.685278,-83.385278,2019,180,855,250nM,281,stock19c,,b,11.47,10737,7.93,1.55,4.77,0.93
GD,1,8.685278,-83.385278,2019,180,855,250nM,,stock19c,,a,22.93,22130,7.93,1.55,4.77,0.93
GD,1,8.685278,-83.385278,2019,180,855,250nM,281,stock19c,,b,22.93,18302,7.93,1.55,4.77,0.93
GD,1,8.685278,-83.385278,2019,180,855,500nM,410,stock19c,995884,a,0.5,2666,10.52,2.34,12.92,2.87
GD,1,8.685278,-83.385278,2019,180,855,500nM,432,stock19c,944338,b,0.5,3985,10.52,2.34,12.92,2.87
GD,1,8.685278,-83.385278,2019,180,855,500nM,,stock19c,,a,5.65,5370,10.52,2.34,12.92,2.87
GD,1,8.685278,-83.385278,2019,180,855,500nM,469,stock19c,,b,5.65,6933,10.52,2.34,12.92,2.87
GD,1,8.685278,-83.385278,2019,180,855,500nM,,stock19c,,a,11.43,9117,10.52,2.34,12.92,2.87
GD,1,8.685278,-83.385278,2019,180,855,500nM,444,stock19c,,b,11.43,15200,10.52,2.34,12.92,2.87
GD,1,8.685278,-83.385278,2019,180,855,500nM,,stock19c,,a,22.9,35010,10.52,2.34,12.92,2.87
GD,1,8.685278,-83.385278,2019,180,855,500nM,486,stock19c,,b,22.9,17623,10.52,2.34,12.92,2.87
GD,1,8.685278,-83.385278,2019,180,855,1500nM,1482,stock19c,958345,a,0.47,3464,6.88,1.65,29.91,7.17
GD,1,8.685278,-83.385278,2019,180,855,1500nM,1435,stock19c,908524,b,0.47,5570,6.88,1.65,29.91,7.17
GD,1,8.685278,-83.385278,2019,180,855,1500nM,,stock19c,,a,5.62,8239,6.88,1.65,29.91,7.17
GD,1,8.685278,-83.385278,2019,180,855,1500nM,1683,stock19c,,b,5.62,11994,6.88,1.65,29.91,7.17
GD,1,8.685278,-83.385278,2019,180,855,1500nM,,stock19c,,a,11.4,15270,6.88,1.65,29.91,7.17
GD,1,8.685278,-83.385278,2019,180,855,1500nM,1647,stock19c,,b,11.4,13638,6.88,1.65,29.91,7.17
GD,1,8.685278,-83.385278,2019,180,855,1500nM,,stock19c,,a,22.87,14426,6.88,1.65,29.91,7.17
GD,1,8.685278,-83.385278,2019,180,855,1500nM,1688,stock19c,,b,22.87,26454,6.88,1.65,29.91,7.17