place,year,date,latitude,longitude,depth_m,experiment,tracer_stock,replicate,incubation_time_hours,tritiumCH4_in_sample_dpm_per_mL,tritiumH2O_in_sample_dpm_per_mL,CH4_insitu_uM
GD,2018,29.01.2018,8.685278,-83.385278,165,HR1a,stock18a,a,0.42,128585,1491,1.193
GD,2018,29.01.2018,8.685278,-83.385278,165,HR1a,stock18a,b,0.42,145156,1755,1.193
GD,2018,29.01.2018,8.685278,-83.385278,165,HR1a,stock18a,a,24.5,,16963,1.193
GD,2018,29.01.2018,8.685278,-83.385278,165,HR1a,stock18a,b,24.5,,15170,1.193
GD,2018,29.01.2018,8.685278,-83.385278,130,HR1a,stock18a,a,0.42,151266,873,0.333
GD,2018,29.01.2018,8.685278,-83.385278,130,HR1a,stock18a,b,0.42,145370,691,0.333
GD,2018,29.01.2018,8.685278,-83.385278,130,HR1a,stock18a,a,24.5,,19262,0.333
GD,2018,29.01.2018,8.685278,-83.385278,130,HR1a,stock18a,b,24.5,,22593,0.333
GD,2018,29.01.2018,8.685278,-83.385278,130,HR1a,stock18a,c,24.5,,21865,0.333
GD,2018,29.01.2018,8.685278,-83.385278,125,HR1a,stock18a,a,0.42,144028,696,0.244
GD,2018,29.01.2018,8.685278,-83.385278,125,HR1a,stock18a,b,0.42,147565,522,0.244
GD,2018,29.01.2018,8.685278,-83.385278,125,HR1a,stock18a,a,24.5,,17491,0.244
GD,2018,29.01.2018,8.685278,-83.385278,125,HR1a,stock18a,b,24.5,,17805,0.244
GD,2018,29.01.2018,8.685278,-83.385278,125,HR1a,stock18a,c,24.5,,18283,0.244
GD,2018,29.01.2018,8.685278,-83.385278,120,HR1a,stock18a,a,0.42,151700,2084,0.060
GD,2018,29.01.2018,8.685278,-83.385278,120,HR1a,stock18a,b,0.42,141861,394,0.060
GD,2018,29.01.2018,8.685278,-83.385278,120,HR1a,stock18a,a,24.5,,4096,0.060
GD,2018,29.01.2018,8.685278,-83.385278,120,HR1a,stock18a,b,24.5,,2778,0.060
GD,2018,29.01.2018,8.685278,-83.385278,120,HR1a,stock18a,c,24.5,,1981,0.060
GD,2018,29.01.2018,8.685278,-83.385278,115,HR1a,stock18a,a,0.42,121792,424,0.006
GD,2018,29.01.2018,8.685278,-83.385278,115,HR1a,stock18a,b,0.42,139166,552,0.006
GD,2018,29.01.2018,8.685278,-83.385278,115,HR1a,stock18a,c,0.42,133069,879,0.006
GD,2018,29.01.2018,8.685278,-83.385278,115,HR1a,stock18a,a,24.5,,5847,0.006
GD,2018,29.01.2018,8.685278,-83.385278,115,HR1a,stock18a,b,24.5,,7008,0.006
GD,2018,29.01.2018,8.685278,-83.385278,115,HR1a,stock18a,c,24.5,,4544,0.006
GD,2018,29.01.2018,8.685278,-83.385278,110,HR1a,stock18a,a,0.42,152585,435,0.004
GD,2018,29.01.2018,8.685278,-83.385278,110,HR1a,stock18a,b,0.42,141026,642,0.004
GD,2018,29.01.2018,8.685278,-83.385278,110,HR1a,stock18a,c,0.42,113977,366,0.004
GD,2018,29.01.2018,8.685278,-83.385278,110,HR1a,stock18a,a,24.5,,1716,0.004
GD,2018,29.01.2018,8.685278,-83.385278,110,HR1a,stock18a,b,24.5,,7418,0.004
GD,2018,29.01.2018,8.685278,-83.385278,110,HR1a,stock18a,c,24.5,,3734,0.004
GD,2018,29.01.2018,8.685278,-83.385278,105,HR1a,stock18a,a,0.42,145776,513,0.008
GD,2018,29.01.2018,8.685278,-83.385278,105,HR1a,stock18a,b,0.42,164502,648,0.008
GD,2018,29.01.2018,8.685278,-83.385278,105,HR1a,stock18a,c,0.42,169392,488,0.008
GD,2018,29.01.2018,8.685278,-83.385278,105,HR1a,stock18a,a,24.5,,4013,0.008
GD,2018,29.01.2018,8.685278,-83.385278,105,HR1a,stock18a,b,24.5,,4432,0.008
GD,2018,29.01.2018,8.685278,-83.385278,105,HR1a,stock18a,c,24.5,,3913,0.008
GD,2018,29.01.2018,8.685278,-83.385278,100,HR1a,stock18a,a,0.42,181774,338,0.005
GD,2018,29.01.2018,8.685278,-83.385278,100,HR1a,stock18a,b,0.42,115027,353,0.005
GD,2018,29.01.2018,8.685278,-83.385278,100,HR1a,stock18a,c,0.42,142038,394,0.005
GD,2018,29.01.2018,8.685278,-83.385278,100,HR1a,stock18a,a,24.5,,6564,0.005
GD,2018,29.01.2018,8.685278,-83.385278,100,HR1a,stock18a,b,24.5,,6482,0.005
GD,2018,29.01.2018,8.685278,-83.385278,100,HR1a,stock18a,c,24.5,,7318,0.005
GD,2018,29.01.2018,8.685278,-83.385278,95,HR1a,stock18a,a,0.42,147348,306,0.004
GD,2018,29.01.2018,8.685278,-83.385278,95,HR1a,stock18a,b,0.42,167346,246,0.004
GD,2018,29.01.2018,8.685278,-83.385278,95,HR1a,stock18a,a,24.5,,1450,0.004
GD,2018,29.01.2018,8.685278,-83.385278,95,HR1a,stock18a,b,24.5,,1496,0.004
GD,2018,29.01.2018,8.685278,-83.385278,95,HR1a,stock18a,c,24.5,,1263,0.004
GD,2018,29.01.2018,8.685278,-83.385278,90,HR1a,stock18a,a,0.42,149959,285,0.003
GD,2018,29.01.2018,8.685278,-83.385278,90,HR1a,stock18a,b,0.42,160937,260,0.003
GD,2018,29.01.2018,8.685278,-83.385278,90,HR1a,stock18a,c,0.42,152945,244,0.003
GD,2018,29.01.2018,8.685278,-83.385278,90,HR1a,stock18a,a,24.5,,2070,0.003
GD,2018,29.01.2018,8.685278,-83.385278,90,HR1a,stock18a,b,24.5,,1742,0.003
GD,2018,29.01.2018,8.685278,-83.385278,90,HR1a,stock18a,c,24.5,,2766,0.003
GD,2018,29.01.2018,8.685278,-83.385278,80,HR1a,stock18a,a,0.42,148065,226,0.004
GD,2018,29.01.2018,8.685278,-83.385278,80,HR1a,stock18a,b,0.42,167047,275,0.004
GD,2018,29.01.2018,8.685278,-83.385278,80,HR1a,stock18a,c,0.42,150480,265,0.004
GD,2018,29.01.2018,8.685278,-83.385278,80,HR1a,stock18a,a,24.5,,1411,0.004
GD,2018,29.01.2018,8.685278,-83.385278,80,HR1a,stock18a,b,24.5,,1229,0.004
GD,2018,29.01.2018,8.685278,-83.385278,80,HR1a,stock18a,c,24.5,,2228,0.004
GD,2018,29.01.2018,8.685278,-83.385278,70,HR1a,stock18a,a,0.42,151216,216,0.006
GD,2018,29.01.2018,8.685278,-83.385278,70,HR1a,stock18a,b,0.42,128995,222,0.006
GD,2018,29.01.2018,8.685278,-83.385278,70,HR1a,stock18a,c,0.42,134540,268,0.006
GD,2018,29.01.2018,8.685278,-83.385278,70,HR1a,stock18a,a,24.5,,1496,0.006
GD,2018,29.01.2018,8.685278,-83.385278,70,HR1a,stock18a,b,24.5,,1718,0.006
GD,2018,29.01.2018,8.685278,-83.385278,70,HR1a,stock18a,c,24.5,,1631,0.006
GD,2018,29.01.2018,8.685278,-83.385278,50,HR1a,stock18a,a,0.42,164433,295,0.006
GD,2018,29.01.2018,8.685278,-83.385278,50,HR1a,stock18a,b,0.42,150657,336,0.006
GD,2018,29.01.2018,8.685278,-83.385278,50,HR1a,stock18a,c,0.42,162213,653,0.006
GD,2018,29.01.2018,8.685278,-83.385278,50,HR1a,stock18a,a,24.5,,2023,0.006
GD,2018,29.01.2018,8.685278,-83.385278,50,HR1a,stock18a,b,24.5,,2057,0.006
GD,2018,29.01.2018,8.685278,-83.385278,50,HR1a,stock18a,c,24.5,,1639,0.006
GD,2018,02.02.2018,8.685278,-83.385278,180,HR1b,stock18b,a,1,123174,1966,1.554
GD,2018,02.02.2018,8.685278,-83.385278,180,HR1b,stock18b,b,1,120867,1488,1.554
GD,2018,02.02.2018,8.685278,-83.385278,180,HR1b,stock18b,c,1,130600,2894,1.554
GD,2018,02.02.2018,8.685278,-83.385278,180,HR1b,stock18b,a,25,,17706,1.554
GD,2018,02.02.2018,8.685278,-83.385278,180,HR1b,stock18b,b,25,,25578,1.554
GD,2018,02.02.2018,8.685278,-83.385278,180,HR1b,stock18b,c,25,,22102,1.554
GD,2018,02.02.2018,8.685278,-83.385278,160,HR1b,stock18b,a,1,120702,2282,1.376
GD,2018,02.02.2018,8.685278,-83.385278,160,HR1b,stock18b,b,1,129237,2408,1.376
GD,2018,02.02.2018,8.685278,-83.385278,160,HR1b,stock18b,c,1,140415,2070,1.376
GD,2018,02.02.2018,8.685278,-83.385278,160,HR1b,stock18b,a,25,,15258,1.376
GD,2018,02.02.2018,8.685278,-83.385278,160,HR1b,stock18b,b,25,,12617,1.376
GD,2018,02.02.2018,8.685278,-83.385278,160,HR1b,stock18b,c,25,,11893,1.376
GD,2018,02.02.2018,8.685278,-83.385278,150,HR1b,stock18b,a,1,133062,1920,1.342
GD,2018,02.02.2018,8.685278,-83.385278,150,HR1b,stock18b,b,1,123382,2190,1.342
GD,2018,02.02.2018,8.685278,-83.385278,150,HR1b,stock18b,c,1,129687,2277,1.342
GD,2018,02.02.2018,8.685278,-83.385278,150,HR1b,stock18b,a,25,,15700,1.342
GD,2018,02.02.2018,8.685278,-83.385278,150,HR1b,stock18b,b,25,,14372,1.342
GD,2018,02.02.2018,8.685278,-83.385278,150,HR1b,stock18b,c,25,,14474,1.342
GD,2018,02.02.2018,8.685278,-83.385278,145,HR1b,stock18b,a,1,121056,676,1.120
GD,2018,02.02.2018,8.685278,-83.385278,145,HR1b,stock18b,b,1,116452,1051,1.120
GD,2018,02.02.2018,8.685278,-83.385278,145,HR1b,stock18b,c,1,118330,1062,1.120
GD,2018,02.02.2018,8.685278,-83.385278,145,HR1b,stock18b,a,25,,4949,1.120
GD,2018,02.02.2018,8.685278,-83.385278,145,HR1b,stock18b,b,25,,5939,1.120
GD,2018,02.02.2018,8.685278,-83.385278,145,HR1b,stock18b,c,25,,6029,1.120
GD,2018,02.02.2018,8.685278,-83.385278,140,HR1b,stock18b,a,1,79197,552,0.899
GD,2018,02.02.2018,8.685278,-83.385278,140,HR1b,stock18b,b,1,124946,1114,0.899
GD,2018,02.02.2018,8.685278,-83.385278,140,HR1b,stock18b,c,1,123636,1573,0.899
GD,2018,02.02.2018,8.685278,-83.385278,140,HR1b,stock18b,a,25,,8418,0.899
GD,2018,02.02.2018,8.685278,-83.385278,140,HR1b,stock18b,b,25,,5306,0.899
GD,2018,02.02.2018,8.685278,-83.385278,140,HR1b,stock18b,c,25,,8208,0.899
GD,2018,02.02.2018,8.685278,-83.385278,130,HR1b,stock18b,a,1,116340,645,0.497
GD,2018,02.02.2018,8.685278,-83.385278,130,HR1b,stock18b,b,1,122006,842,0.497
GD,2018,02.02.2018,8.685278,-83.385278,130,HR1b,stock18b,c,1,140998,986,0.497
GD,2018,02.02.2018,8.685278,-83.385278,130,HR1b,stock18b,a,25,,3214,0.497
GD,2018,02.02.2018,8.685278,-83.385278,130,HR1b,stock18b,b,25,,3875,0.497
GD,2018,02.02.2018,8.685278,-83.385278,130,HR1b,stock18b,c,25,,3174,0.497
GD,2018,02.02.2018,8.685278,-83.385278,120,HR1b,stock18b,a,1,120118,581,0.003
GD,2018,02.02.2018,8.685278,-83.385278,120,HR1b,stock18b,b,1,128275,517,0.003
GD,2018,02.02.2018,8.685278,-83.385278,120,HR1b,stock18b,c,1,131575,903,0.003
GD,2018,02.02.2018,8.685278,-83.385278,120,HR1b,stock18b,a,25,,1535,0.003
GD,2018,02.02.2018,8.685278,-83.385278,120,HR1b,stock18b,b,25,,2413,0.003
GD,2018,02.02.2018,8.685278,-83.385278,120,HR1b,stock18b,c,25,,2638,0.003
GD,2018,02.02.2018,8.685278,-83.385278,110,HR1b,stock18b,a,1,,,0.006
GD,2018,02.02.2018,8.685278,-83.385278,110,HR1b,stock18b,b,1,122807,526,0.006
GD,2018,02.02.2018,8.685278,-83.385278,110,HR1b,stock18b,c,1,135816,538,0.006
GD,2018,02.02.2018,8.685278,-83.385278,110,HR1b,stock18b,a,25,,1078,0.006
GD,2018,02.02.2018,8.685278,-83.385278,110,HR1b,stock18b,b,25,,1699,0.006
GD,2018,02.02.2018,8.685278,-83.385278,110,HR1b,stock18b,c,25,,2260,0.006